<?xml version="1.0" encoding="utf-8"?>
<!-- Generator: Adobe Illustrator 24.0.1, SVG Export Plug-In . SVG Version: 6.00 Build 0)  -->
<svg version="1.1" id="Layer_1" xmlns="http://www.w3.org/2000/svg" xmlns:xlink="http://www.w3.org/1999/xlink" x="0px" y="0px"
	 viewBox="0 0 444 453" style="enable-background:new 0 0 444 453;" xml:space="preserve">
<style type="text/css">
	.st0{fill:#EF3B2D;}
</style>
<path class="st0" d="M393.9,129.9c0-0.2-0.1-0.3-0.2-0.5c-0.1-0.3-0.2-0.6-0.3-0.9c-0.1-0.2-0.2-0.3-0.4-0.5
	c-0.2-0.2-0.3-0.5-0.5-0.7c-0.2-0.2-0.4-0.3-0.5-0.4c-0.2-0.2-0.4-0.3-0.6-0.5l0,0l0,0l-65.1-38.7c-1.7-1-3.7-1-5.4,0l-65.1,38.7
	l0,0l0,0c-0.2,0.1-0.4,0.3-0.6,0.5c-0.2,0.1-0.4,0.3-0.5,0.4c-0.2,0.2-0.3,0.4-0.5,0.7c-0.1,0.2-0.3,0.3-0.4,0.5
	c-0.1,0.3-0.2,0.6-0.3,0.9c-0.1,0.2-0.1,0.3-0.2,0.5c-0.1,0.5-0.2,1-0.2,1.5v73.5l-54.2,32.3V93.3c0-0.5-0.1-1-0.2-1.5
	c0-0.2-0.1-0.3-0.2-0.5c-0.1-0.3-0.2-0.6-0.3-0.9c-0.1-0.2-0.2-0.3-0.4-0.5c-0.2-0.2-0.3-0.5-0.5-0.7c-0.2-0.2-0.4-0.3-0.5-0.4
	c-0.2-0.2-0.4-0.3-0.6-0.5l0,0l0,0l-65.1-38.7c-1.7-1-3.7-1-5.4,0L60.7,88.5l0,0l0,0c-0.2,0.1-0.4,0.3-0.6,0.5
	c-0.2,0.1-0.4,0.3-0.5,0.4c-0.2,0.2-0.3,0.4-0.5,0.7c-0.1,0.2-0.3,0.3-0.4,0.5c-0.1,0.3-0.2,0.6-0.3,0.9c-0.1,0.2-0.1,0.3-0.2,0.5
	c-0.1,0.5-0.2,1-0.2,1.5v230.3c0,2,1,3.9,2.7,4.9l130.1,77.4c0.3,0.2,0.6,0.3,0.9,0.4c0.1,0.1,0.3,0.1,0.4,0.2
	c0.5,0.1,0.9,0.2,1.4,0.2s0.9-0.1,1.4-0.2c0.1,0,0.2-0.1,0.4-0.2c0.3-0.1,0.6-0.2,0.9-0.4l130.1-77.4c1.7-1,2.7-2.8,2.7-4.9v-73.5
	l62.3-37.1c1.7-1,2.7-2.8,2.7-4.9v-76.8C394.1,130.9,394,130.4,393.9,129.9z M193.5,317.1l-54.1-31.6l56.8-33.8l0,0l62.4-37.1
	l54.2,32.2L273,270.2L193.5,317.1z M318.2,173.3v63.8l-22.8-13.5L264,204.9v-63.8l22.8,13.5L318.2,173.3z M323.6,99.1l54.2,32.2
	l-54.2,32.2l-54.2-32.2L323.6,99.1z M156.6,262.3l-22.8,13.5V135.3l31.5-18.7l22.8-13.5v140.6L156.6,262.3z M128.4,61.1l54.2,32.2
	l-54.2,32.2L74.2,93.3L128.4,61.1z M68.8,103l22.8,13.5l31.5,18.7v150.3v0v0c0,0.2,0.1,0.4,0.1,0.6c0,0.3,0,0.6,0.1,0.8v0
	c0.1,0.2,0.2,0.4,0.3,0.6c0.1,0.2,0.2,0.5,0.3,0.7c0,0,0,0,0,0c0.1,0.2,0.3,0.4,0.4,0.5c0.1,0.2,0.3,0.4,0.4,0.6l0,0
	c0.1,0.2,0.3,0.3,0.5,0.4c0.2,0.2,0.4,0.3,0.6,0.5c0,0,0,0,0,0c0,0,0,0,0,0l62.3,36.4v64.5l-119.3-71V103z M318.2,320.3l-119.3,71
	v-64.5l88.3-52.1l30.9-18.3L318.2,320.3L318.2,320.3z M383.2,204.9L329,237.1v-63.8l31.5-18.7l22.8-13.5L383.2,204.9L383.2,204.9z"
	/>
</svg>
